Immune Deconvolution Benchmark
…
total_cells

## # A tibble: 3 x 2
##   donor `sum(cell_count)`
##   <chr>             <int>
## 1 7873M               864
## 2 7882M               902
## 3 7892M               773

true_cell_count

## # A tibble: 25 x 4
## # Groups:   donor [3]
##    donor cell_type                     cell_count true_fraction
##    <chr> <chr>                              <int>         <dbl>
##  1 7873M B cells                                5       0.00579
##  2 7882M B cells                                4       0.00443
##  3 7892M B cells                                5       0.00647
##  4 7873M Cancer associated fibroblasts          9       0.0104 
##  5 7882M Cancer associated fibroblasts         11       0.0122 
##  6 7892M Cancer associated fibroblasts         16       0.0207 
##  7 7873M CD4+ T cells                          29       0.0336 
##  8 7882M CD4+ T cells                         137       0.152  
##  9 7892M CD4+ T cells                         100       0.129  
## 10 7873M CD8+ T cells                           4       0.00463
## # ... with 15 more rows
…
